{
  "collection": [
      {
          "created_at": "2019-06-18T20:19:56Z",
          "end_time": "2019-06-20T15:15:00Z",
          "event_type": {
              "color": "#dfc12d",
              "kind": "solo",
              "name": "15 Minute Meeting",
              "owner": {
                  "name": "John Doe",
                  "type": "user"
              },
              "type": "standard",
              "uuid": "ABCDEABCDEABCDE"
          },
          "location": {
              "type": "custom",
              "value": null
          },
          "start_time": "2019-06-20T15:00:00Z",
          "status": "active",
          "uuid": "DABBEDGEAFHAENSM",
          "invitees_counter": {
            "total": 1,
            "active": 1,
            "limit": 1
          }
      }
  ],
  "pagination": {
      "current_page": 1,
      "next_page": 2,
      "prev_page": null,
      "total_count": 90,
      "total_pages": 10
  }
}